…
> # prepped_data$dat_transformed
> #   
> # ml_model <- run_ml(prepped_data$dat_transformed, method = "glmnet",  outcome_colname = "new_seq_data", seed = 2000)
> # 
> # ml_model
> # ml_model$trained_model
> 
> #gtss30 intial model
> gtss30 <- use_json("Data/gt_subset_30_data.json")
> gtss30 <- json_to_tibble(gtss30)
> 
> prepped_data_gtss30 <- preprocess_data(gtss30, outcome_colname = "new_seq_data")
Using 'new_seq_data' as the outcome column.
> prepped_data_gtss30$dat_transformed
# A tibble: 30 × 2,510
   new_seq_data abilities ability abolished absence absent absolute  grp1
   <chr>            <dbl>   <dbl>     <dbl>   <dbl>  <dbl>    <dbl> <dbl>
 1 Yes             -0.307  0.0470     1.81   -0.647 -0.308    1.22      1
 2 Yes             -0.307 -0.658     -0.361  -0.647 -0.308   -0.373     0
 3 No              -0.307 -0.658     -0.361  -0.647 -0.308   -0.373     0
 4 No              -0.307  1.81      -0.361   0.145 -0.308   -0.373     0
 5 Yes             -0.307 -0.658     -0.361   2.52  -0.308    2.82      0
 6 No              -0.307 -0.305     -0.361  -0.647 -0.308   -0.373     0
 7 Yes             -0.307 -0.658     -0.361  -0.251 -0.308   -0.373     0
 8 No              -0.307 -0.305     -0.361   0.145 -0.308   -0.373     0
 9 Yes             -0.307 -0.658     -0.361  -0.647 -0.308   -0.373     0
10 No              -0.307  0.752      1.81    0.937 -0.308   -0.373     0
# ℹ 20 more rows
# ℹ 2,502 more variables: absorption <dbl>, abundance <dbl>, abundances <dbl>,
#   abundant <dbl>, acceptor_1 <dbl>, access <dbl>, accession <dbl>,
#   accomplished <dbl>, accordance <dbl>, account <dbl>, accounted <dbl>,
#   accounting <dbl>, accounts <dbl>, grp2 <dbl>, accumulation <dbl>,
#   accurately <dbl>, acetate <dbl>, acetyl <dbl>, achieve <dbl>,
#   achieved <dbl>, acid <dbl>, grp3 <dbl>, acids <dbl>, acinetobacter <dbl>, …
…
$feature_importance
[1] "Skipped feature importance"

> 
> #groundtruth intial model
> groundtruth <- use_json("Data/groundtruth.json")
> groundtruth <- json_to_tibble(groundtruth)
> 
> prepped_data_gt <- preprocess_data(groundtruth, outcome_colname = "new_seq_data")
Using 'new_seq_data' as the outcome column.
> prepped_data_gt$dat_transformed
# A tibble: 500 × 1,537
   new_seq_data ability absence absent absorbance abundance abundant access
   <chr>          <dbl>   <dbl>  <dbl>      <dbl>     <dbl>    <dbl>  <dbl>
 1 No            -0.495  -0.348 -0.280     -0.172    -0.281   -0.282 -0.243
 2 No            -0.495  -0.348 -0.280     -0.172    -0.281   -0.282 -0.243
 3 No            -0.495  -0.348 -0.280     -0.172    -0.281   -0.282 -0.243
 4 No            -0.495  -0.181 -0.280     -0.172    -0.281   -0.282 -0.243
 5 No            -0.495  -0.348 -0.280     -0.172    -0.281   -0.282 -0.243
 6 No            -0.495  -0.348 -0.280     -0.172    -0.281   -0.282 -0.243
 7 No            -0.495  -0.348 -0.280     -0.172    -0.281   -0.282 -0.243
 8 No            -0.495  -0.348 -0.280     -0.172    -0.281   -0.282 -0.243
 9 No            -0.495  -0.348 -0.280     -0.172    -0.281   -0.282 -0.243
10 No            -0.495  -0.348 -0.280     -0.172    -0.281   -0.282 -0.243
# ℹ 490 more rows
# ℹ 1,529 more variables: accession <dbl>, accordance <dbl>, account <dbl>,
#   accumulation <dbl>, accurate <dbl>, acetate <dbl>, achieved <dbl>,
#   acid <dbl>, acids <dbl>, acknowledge <dbl>, acknowledgments <dbl>,
#   acquire <dbl>, acquired <dbl>, acquisition <dbl>, action <dbl>,
#   activate <dbl>, activated <dbl>, activation <dbl>, active <dbl>,
#   activities <dbl>, activity <dbl>, acts <dbl>, acute <dbl>, adapted <dbl>, …
…
